ST 558 - Final Project
…
`summarise()` has grouped output by 'age'. You can override using the `.groups`
argument.

age_diabetes_summary

# A tibble: 26 × 8
# Groups:   age [13]
   age   sex     mean median    sd   IQR   min   max
   <fct> <fct>  <dbl>  <dbl> <dbl> <dbl> <dbl> <dbl>
 1 18–24 0     0.0164      0 0.127     0     0     1
 2 18–24 1     0.0112      0 0.105     0     0     1
 3 25–29 0     0.0223      0 0.148     0     0     1
 4 25–29 1     0.0141      0 0.118     0     0     1
 5 30–34 0     0.0315      0 0.175     0     0     1
 6 30–34 1     0.0243      0 0.154     0     0     1
 7 35–39 0     0.0474      0 0.212     0     0     1
 8 35–39 1     0.0426      0 0.202     0     0     1
 9 40–44 0     0.0630      0 0.243     0     0     1
10 40–44 1     0.0677      0 0.251     0     0     1
# ℹ 16 more rows
…
